\relax 
\providecommand\hyper@newdestlabel[2]{}
\providecommand*{\memsetcounter}[2]{}
\providecommand\HyperFirstAtBeginDocument{\AtBeginDocument}
\HyperFirstAtBeginDocument{\ifx\hyper@anchor\@undefined
\global\let\oldcontentsline\contentsline
\gdef\contentsline#1#2#3#4{\oldcontentsline{#1}{#2}{#3}}
\global\let\oldnewlabel\newlabel
\gdef\newlabel#1#2{\newlabelxx{#1}#2}
\gdef\newlabelxx#1#2#3#4#5#6{\oldnewlabel{#1}{{#2}{#3}}}
\AtEndDocument{\ifx\hyper@anchor\@undefined
\let\contentsline\oldcontentsline
\let\newlabel\oldnewlabel
\fi}
\fi}
\global\let\hyper@last\relax 
\gdef\HyperFirstAtBeginDocument#1{#1}
\providecommand\HyField@AuxAddToFields[1]{}
\providecommand\HyField@AuxAddToCoFields[2]{}
\@writefile{toc}{\changetocdepth  {2}}
\babel@aux{english}{}
\citation{SBB_numbers}
\@writefile{toc}{\contentsline {chapter}{Contents}{iii}{section*.1}}
\citation{SBB_numbers}
\@writefile{lof}{\addvspace {10pt}}
\@writefile{lot}{\addvspace {10pt}}
\@writefile{toc}{\contentsline {chapter}{\chapternumberline {1}Introduction}{1}{chapter.1}}
\citation{SBB:open_data}
\@writefile{toc}{\contentsline {section}{\numberline {1.1}Thesis Objective}{2}{section.1.1}}
\newlabel{sec:thesis_objective}{{\M@TitleReference {1.1}{Thesis Objective}}{2}{Thesis Objective}{section.1.1}{}}
\newlabel{sec:thesis_objective@cref}{{[section][1][1]1.1}{[1][2][]2}}
\@writefile{lof}{\contentsline {figure}{\numberline {1.1}{\ignorespaces An abstract view of the situation we are predicting. A train that travels from $A$ to $B$ reports actual arrival and departure times $t_A'$ and $t_B'$. The running time can be computed by the difference of $t_A'$ and $t_B'$. Delays result by comparing $t_A'$ and $t_B'$ with the schedule $t_A$ and $t_B$.\relax }}{2}{figure.caption.2}}
\providecommand*\caption@xref[2]{\@setref\relax\@undefined{#1}}
\newlabel{fig:prediction_situation}{{\M@TitleReference {1.1}{An abstract view of the situation we are predicting. A train that travels from $A$ to $B$ reports actual arrival and departure times $t_A'$ and $t_B'$. The running time can be computed by the difference of $t_A'$ and $t_B'$. Delays result by comparing $t_A'$ and $t_B'$ with the schedule $t_A$ and $t_B$.\relax }}{2}{An abstract view of the situation we are predicting. A train that travels from $A$ to $B$ reports actual arrival and departure times $t_A'$ and $t_B'$. The running time can be computed by the difference of $t_A'$ and $t_B'$. Delays result by comparing $t_A'$ and $t_B'$ with the schedule $t_A$ and $t_B$.\relax }{figure.caption.2}{}}
\newlabel{fig:prediction_situation@cref}{{[figure][1][1]1.1}{[1][2][]2}}
\citation{gaurav2018}
\citation{Yaghini2013}
\citation{Oneto2016}
\citation{Oneto2018}
\citation{Chen2007}
\citation{gaurav2018}
\citation{Oneto2016}
\citation{cambriahuang2013}
\citation{Yu2010}
\citation{Gutweniger2018}
\@writefile{toc}{\contentsline {section}{\numberline {1.2}Related Work}{3}{section.1.2}}
\newlabel{sec:related_work}{{\M@TitleReference {1.2}{Related Work}}{3}{Related Work}{section.1.2}{}}
\newlabel{sec:related_work@cref}{{[section][2][1]1.2}{[1][3][]3}}
\citation{tibshirani}
\citation{2008coordinate_for_lasso}
\citation{least_angle_regression}
\@writefile{lof}{\addvspace {10pt}}
\@writefile{lot}{\addvspace {10pt}}
\@writefile{toc}{\contentsline {chapter}{\chapternumberline {2}Background}{5}{chapter.2}}
\@writefile{toc}{\contentsline {section}{\numberline {2.1}Linear Least Squares Regression}{5}{section.2.1}}
\@writefile{toc}{\contentsline {section}{\numberline {2.2}Lasso Regression}{5}{section.2.2}}
\citation{Ho_random_forest}
\citation{Breiman2001}
\citation{Breiman1984ClassificationAR}
\@writefile{toc}{\contentsline {section}{\numberline {2.3}Random Forest Regression}{6}{section.2.3}}
\citation{luong2015effective}
\citation{zhang2015structured}
\citation{neelakantan2015neural}
\@writefile{lof}{\contentsline {figure}{\numberline {2.1}{\ignorespaces An example for a decision tree that predicts the weather. When predicting an instance the model follows the tree from the root and checks the properties on the way to a leaf node.\relax }}{7}{figure.caption.3}}
\newlabel{fig:decision_tree}{{\M@TitleReference {2.1}{An example for a decision tree that predicts the weather. When predicting an instance the model follows the tree from the root and checks the properties on the way to a leaf node.\relax }}{7}{An example for a decision tree that predicts the weather. When predicting an instance the model follows the tree from the root and checks the properties on the way to a leaf node.\relax }{figure.caption.3}{}}
\newlabel{fig:decision_tree@cref}{{[figure][1][2]2.1}{[1][6][]7}}
\@writefile{toc}{\contentsline {section}{\numberline {2.4}Feedforward Artificial Neural Networks}{7}{section.2.4}}
\@writefile{toc}{\contentsline {subsection}{\numberline {2.4.1}Attention models}{7}{subsection.2.4.1}}
\@writefile{lof}{\contentsline {figure}{\numberline {2.2}{\ignorespaces The idea of the attention mechanism uses a context $c$ to focus on information in the $k$ inputs $\mathbf  {z}_1, \mathbf  {z}_2, \dots  \mathbf  {z}_k$ and produces an output $\mathbf  {y}$. \relax }}{8}{figure.caption.4}}
\newlabel{fig:attention_model}{{\M@TitleReference {2.2}{The idea of the attention mechanism uses a context $c$ to focus on information in the $k$ inputs $\mathbf  {z}_1, \mathbf  {z}_2, \dots  \mathbf  {z}_k$ and produces an output $\mathbf  {y}$. \relax }}{8}{The idea of the attention mechanism uses a context $c$ to focus on information in the $k$ inputs $\mathbf {z}_1, \mathbf {z}_2, \dots \mathbf {z}_k$ and produces an output $\mathbf {y}$. \relax }{figure.caption.4}{}}
\newlabel{fig:attention_model@cref}{{[figure][2][2]2.2}{[1][8][]8}}
\@writefile{toc}{\contentsline {subsection}{\numberline {2.4.2}One-hot encoding}{8}{subsection.2.4.2}}
\newlabel{subsec:one_hot_encoding}{{\M@TitleReference {2.4.2}{One-hot encoding}}{8}{One-hot encoding}{subsection.2.4.2}{}}
\newlabel{subsec:one_hot_encoding@cref}{{[subsection][2][2,4]2.4.2}{[1][8][]8}}
\citation{Gori2005}
\citation{Battaglia2018RelationalIB}
\@writefile{toc}{\contentsline {section}{\numberline {2.5}Graph nets}{9}{section.2.5}}
\@writefile{loa}{\contentsline {algorithm}{\numberline {1}{\ignorespaces Steps of computation in a full GN block\relax }}{9}{algorithm.1}}
\newlabel{GN_block}{{\M@TitleReference {1}{Steps of computation in a full GN block\relax }}{9}{Steps of computation in a full GN block\relax }{algorithm.1}{}}
\newlabel{GN_block@cref}{{[algorithm][1][]1}{[1][9][]9}}
\@writefile{lof}{\addvspace {10pt}}
\@writefile{lot}{\addvspace {10pt}}
\@writefile{toc}{\contentsline {chapter}{\chapternumberline {3}Methodology}{11}{chapter.3}}
\@writefile{toc}{\contentsline {section}{\numberline {3.1}Problem formulation}{11}{section.3.1}}
\newlabel{sec:problem_formulation}{{\M@TitleReference {3.1}{Problem formulation}}{11}{Problem formulation}{section.3.1}{}}
\newlabel{sec:problem_formulation@cref}{{[section][1][3]3.1}{[1][11][]11}}
\citation{SBB:open_data}
\@writefile{toc}{\contentsline {section}{\numberline {3.2}Dataset}{12}{section.3.2}}
\@writefile{lof}{\contentsline {figure}{\numberline {3.1}{\ignorespaces Several sensors at the stations gather data of the trains passing by. \relax }}{12}{figure.caption.5}}
\newlabel{fig:data_gathering}{{\M@TitleReference {3.1}{Several sensors at the stations gather data of the trains passing by. \relax }}{12}{Several sensors at the stations gather data of the trains passing by. \relax }{figure.caption.5}{}}
\newlabel{fig:data_gathering@cref}{{[figure][1][3]3.1}{[1][12][]12}}
\@writefile{lof}{\contentsline {figure}{\numberline {3.2}{\ignorespaces Sample entries of the dataset\relax }}{12}{figure.caption.6}}
\newlabel{fig:data_table}{{\M@TitleReference {3.2}{Sample entries of the dataset\relax }}{12}{Sample entries of the dataset\relax }{figure.caption.6}{}}
\newlabel{fig:data_table@cref}{{[figure][2][3]3.2}{[1][12][]12}}
\@writefile{toc}{\contentsline {subsection}{\numberline {3.2.1}Validation and test split}{13}{subsection.3.2.1}}
\@writefile{lof}{\contentsline {figure}{\numberline {3.3}{\ignorespaces Cross-validation is displayed by the variance $\sigma _{cv}$ and average $\mu _{cv}$.\relax }}{13}{figure.caption.7}}
\newlabel{fig:cv_explain}{{\M@TitleReference {3.3}{Cross-validation is displayed by the variance $\sigma _{cv}$ and average $\mu _{cv}$.\relax }}{13}{Cross-validation is displayed by the variance $\sigma _{cv}$ and average $\mu _{cv}$.\relax }{figure.caption.7}{}}
\newlabel{fig:cv_explain@cref}{{[figure][3][3]3.3}{[1][13][]13}}
\citation{wiki:Zugnummer}
\@writefile{toc}{\contentsline {subsection}{\numberline {3.2.2}Pre-processing}{14}{subsection.3.2.2}}
\@writefile{toc}{\contentsline {subsubsection}{Simplifications}{14}{section*.8}}
\newlabel{subsubsec:simplifications}{{\M@TitleReference {3.2.2}{Simplifications}}{14}{Simplifications}{section*.8}{}}
\newlabel{subsubsec:simplifications@cref}{{[subsection][2][3,2]3.2.2}{[1][14][]14}}
\@writefile{toc}{\contentsline {subsubsection}{Extract targets}{14}{section*.9}}
\newlabel{subsubsec:target}{{\M@TitleReference {3.2.2}{Extract targets}}{14}{Extract targets}{section*.9}{}}
\newlabel{subsubsec:target@cref}{{[subsection][2][3,2]3.2.2}{[1][14][]14}}
\@writefile{toc}{\contentsline {subsubsection}{Extract vehicle features}{14}{section*.10}}
\newlabel{subsubsec:vehicle_features}{{\M@TitleReference {3.2.2}{Extract vehicle features}}{14}{Extract vehicle features}{section*.10}{}}
\newlabel{subsubsec:vehicle_features@cref}{{[subsection][2][3,2]3.2.2}{[1][14][]14}}
\@writefile{lot}{\contentsline {table}{\numberline {3.1}{\ignorespaces The vehicle-specific input.\relax }}{15}{table.caption.11}}
\newlabel{table:vehicle_information}{{\M@TitleReference {3.1}{The vehicle-specific input.\relax }}{15}{The vehicle-specific input.\relax }{table.caption.11}{}}
\newlabel{table:vehicle_information@cref}{{[table][1][3]3.1}{[1][15][]15}}
\@writefile{toc}{\contentsline {subsubsection}{Extract graph features}{15}{section*.12}}
\newlabel{subsubsec:graph_features}{{\M@TitleReference {3.2.2}{Extract graph features}}{15}{Extract graph features}{section*.12}{}}
\newlabel{subsubsec:graph_features@cref}{{[subsection][2][3,2]3.2.2}{[1][15][]15}}
\@writefile{lof}{\contentsline {figure}{\numberline {3.4}{\ignorespaces A simple version of the graph. For a train $x_p$ that travels from $A$ to $B$ we consider the most recent train movement that happened before the departure time of $x_p$. Here the most recent running time for the edge $e=(A,B)$ is 22 seconds.\relax }}{16}{figure.caption.13}}
\newlabel{fig:graph_with_running_time}{{\M@TitleReference {3.4}{A simple version of the graph. For a train $x_p$ that travels from $A$ to $B$ we consider the most recent train movement that happened before the departure time of $x_p$. Here the most recent running time for the edge $e=(A,B)$ is 22 seconds.\relax }}{16}{A simple version of the graph. For a train $x_p$ that travels from $A$ to $B$ we consider the most recent train movement that happened before the departure time of $x_p$. Here the most recent running time for the edge $e=(A,B)$ is 22 seconds.\relax }{figure.caption.13}{}}
\newlabel{fig:graph_with_running_time@cref}{{[figure][4][3]3.4}{[1][16][]16}}
\@writefile{toc}{\contentsline {subsection}{\numberline {3.2.3}Feature scaling}{17}{subsection.3.2.3}}
\newlabel{subsec:feature_scaling}{{\M@TitleReference {3.2.3}{Feature scaling}}{17}{Feature scaling}{subsection.3.2.3}{}}
\newlabel{subsec:feature_scaling@cref}{{[subsection][3][3,2]3.2.3}{[1][17][]17}}
\@writefile{lof}{\contentsline {figure}{\numberline {3.5}{\ignorespaces A histogram for all train movement that is found in the dataset from 01.01.2018 - 31.06.2018 for a single edge. The mean of all running times is display by a vertical red line and the standard deviation by green arrows. \relax }}{17}{figure.caption.14}}
\newlabel{fig:histogram_running_times}{{\M@TitleReference {3.5}{A histogram for all train movement that is found in the dataset from 01.01.2018 - 31.06.2018 for a single edge. The mean of all running times is display by a vertical red line and the standard deviation by green arrows. \relax }}{17}{A histogram for all train movement that is found in the dataset from 01.01.2018 - 31.06.2018 for a single edge. The mean of all running times is display by a vertical red line and the standard deviation by green arrows. \relax }{figure.caption.14}{}}
\newlabel{fig:histogram_running_times@cref}{{[figure][5][3]3.5}{[1][17][]17}}
\@writefile{toc}{\contentsline {section}{\numberline {3.3}Baseline}{18}{section.3.3}}
\@writefile{toc}{\contentsline {subsection}{\numberline {3.3.1}Mean per edge}{18}{subsection.3.3.1}}
\newlabel{subsec:mean_per_edge}{{\M@TitleReference {3.3.1}{Mean per edge}}{18}{Mean per edge}{subsection.3.3.1}{}}
\newlabel{subsec:mean_per_edge@cref}{{[subsection][1][3,3]3.3.1}{[1][18][]18}}
\@writefile{toc}{\contentsline {subsection}{\numberline {3.3.2}Random Forest Regressor}{18}{subsection.3.3.2}}
\@writefile{toc}{\contentsline {section}{\numberline {3.4}Neural Network Architectures}{19}{section.3.4}}
\@writefile{toc}{\contentsline {subsection}{\numberline {3.4.1}Attention mechanism}{19}{subsection.3.4.1}}
\newlabel{subsec:attention_mechanism}{{\M@TitleReference {3.4.1}{Attention mechanism}}{19}{Attention mechanism}{subsection.3.4.1}{}}
\newlabel{subsec:attention_mechanism@cref}{{[subsection][1][3,4]3.4.1}{[1][19][]19}}
\@writefile{lof}{\contentsline {figure}{\numberline {3.6}{\ignorespaces The attention mechanism uses the vehicle-specific input as the context $\mathbf  {c}$ and learns an attention on the standardized graph weights $\mathcal  {W}(e_i)'$.\relax }}{19}{figure.caption.15}}
\newlabel{fig:attention_mechanism}{{\M@TitleReference {3.6}{The attention mechanism uses the vehicle-specific input as the context $\mathbf  {c}$ and learns an attention on the standardized graph weights $\mathcal  {W}(e_i)'$.\relax }}{19}{The attention mechanism uses the vehicle-specific input as the context $\mathbf {c}$ and learns an attention on the standardized graph weights $\mathcal {W}(e_i)'$.\relax }{figure.caption.15}{}}
\newlabel{fig:attention_mechanism@cref}{{[figure][6][3]3.6}{[1][19][]19}}
\@writefile{toc}{\contentsline {subsection}{\numberline {3.4.2}Attention model}{20}{subsection.3.4.2}}
\newlabel{subsec:attention_model}{{\M@TitleReference {3.4.2}{Attention model}}{20}{Attention model}{subsection.3.4.2}{}}
\newlabel{subsec:attention_model@cref}{{[subsection][2][3,4]3.4.2}{[1][20][]20}}
\@writefile{lof}{\contentsline {figure}{\numberline {3.7}{\ignorespaces The attention model for train delay prediction uses both the vehicle input and the graph input for prediction. In red the attention mechanism is highlighted.\relax }}{20}{figure.caption.16}}
\newlabel{fig:attention_model_full}{{\M@TitleReference {3.7}{The attention model for train delay prediction uses both the vehicle input and the graph input for prediction. In red the attention mechanism is highlighted.\relax }}{20}{The attention model for train delay prediction uses both the vehicle input and the graph input for prediction. In red the attention mechanism is highlighted.\relax }{figure.caption.16}{}}
\newlabel{fig:attention_model_full@cref}{{[figure][7][3]3.7}{[1][20][]20}}
\citation{jswhit}
\@writefile{toc}{\contentsline {section}{\numberline {3.5}An intuitive view of the graph}{21}{section.3.5}}
\newlabel{subsec:graph_view}{{\M@TitleReference {3.5}{An intuitive view of the graph}}{21}{An intuitive view of the graph}{section.3.5}{}}
\newlabel{subsec:graph_view@cref}{{[section][5][3]3.5}{[1][21][]21}}
\@writefile{lof}{\contentsline {figure}{\numberline {3.8}{\ignorespaces All stations are displayed by a black dot on the corresponding position on the map and the connections are displayed by red lines. This is the full graph with all edges we encounter in the dataset.\relax }}{21}{figure.caption.17}}
\newlabel{fig:full_graph_view}{{\M@TitleReference {3.8}{All stations are displayed by a black dot on the corresponding position on the map and the connections are displayed by red lines. This is the full graph with all edges we encounter in the dataset.\relax }}{21}{All stations are displayed by a black dot on the corresponding position on the map and the connections are displayed by red lines. This is the full graph with all edges we encounter in the dataset.\relax }{figure.caption.17}{}}
\newlabel{fig:full_graph_view@cref}{{[figure][8][3]3.8}{[1][21][]21}}
\@writefile{lof}{\contentsline {figure}{\numberline {3.9}{\ignorespaces An example of a learned attention after 1 epoch of training. The green line in this case constitutes the connection \textbf  {Olten - Bern}.\relax }}{21}{figure.caption.18}}
\newlabel{fig:e11_softmax_trainnet_142_00}{{\M@TitleReference {3.9}{An example of a learned attention after 1 epoch of training. The green line in this case constitutes the connection \textbf  {Olten - Bern}.\relax }}{21}{An example of a learned attention after 1 epoch of training. The green line in this case constitutes the connection \textbf {Olten - Bern}.\relax }{figure.caption.18}{}}
\newlabel{fig:e11_softmax_trainnet_142_00@cref}{{[figure][9][3]3.9}{[1][21][]21}}
\@writefile{lof}{\addvspace {10pt}}
\@writefile{lot}{\addvspace {10pt}}
\@writefile{toc}{\contentsline {chapter}{\chapternumberline {4}Experiments}{23}{chapter.4}}
\newlabel{sec:experiments}{{\M@TitleReference {4}{Experiments}}{23}{Experiments}{chapter.4}{}}
\newlabel{sec:experiments@cref}{{[chapter][4][]4}{[1][23][]23}}
\@writefile{lof}{\contentsline {figure}{\numberline {4.1}{\ignorespaces The connections we will be performing our experiments with. \relax }}{23}{figure.caption.19}}
\newlabel{fig:e9_observe_edges}{{\M@TitleReference {4.1}{The connections we will be performing our experiments with. \relax }}{23}{The connections we will be performing our experiments with. \relax }{figure.caption.19}{}}
\newlabel{fig:e9_observe_edges@cref}{{[figure][1][4]4.1}{[1][23][]23}}
\@writefile{toc}{\contentsline {section}{\numberline {4.1}Mean per edge}{24}{section.4.1}}
\newlabel{subsec:experiments_mean_per_edge}{{\M@TitleReference {4.1}{Mean per edge}}{24}{Mean per edge}{section.4.1}{}}
\newlabel{subsec:experiments_mean_per_edge@cref}{{[section][1][4]4.1}{[1][24][]24}}
\@writefile{lof}{\contentsline {figure}{\numberline {4.2}{\ignorespaces On the left the standard deviation $\sigma _e$ of the edge $e$ is compared to the validation loss of the first baseline on that edge. On the right a comparison between mean running time $\mu _e$ and the standard deviation $\sigma _e$ is displayed.\relax }}{24}{figure.caption.20}}
\newlabel{fig:distance_vs_val_error}{{\M@TitleReference {4.2}{On the left the standard deviation $\sigma _e$ of the edge $e$ is compared to the validation loss of the first baseline on that edge. On the right a comparison between mean running time $\mu _e$ and the standard deviation $\sigma _e$ is displayed.\relax }}{24}{On the left the standard deviation $\sigma _e$ of the edge $e$ is compared to the validation loss of the first baseline on that edge. On the right a comparison between mean running time $\mu _e$ and the standard deviation $\sigma _e$ is displayed.\relax }{figure.caption.20}{}}
\newlabel{fig:distance_vs_val_error@cref}{{[figure][2][4]4.2}{[1][24][]24}}
\@writefile{lot}{\contentsline {table}{\numberline {4.1}{\ignorespaces Investigate different properties of the individual edges\relax }}{25}{table.caption.21}}
\newlabel{table:general_stats_per_edge}{{\M@TitleReference {4.1}{Investigate different properties of the individual edges\relax }}{25}{Investigate different properties of the individual edges\relax }{table.caption.21}{}}
\newlabel{table:general_stats_per_edge@cref}{{[table][1][4]4.1}{[1][25][]25}}
\@writefile{lot}{\contentsline {table}{\numberline {4.2}{\ignorespaces Calculating the losses on all 4 connections when predicting the mean running time per edge as defined in \hyperref  [subsec:mean_per_edge]{Section~\ref  *{subsec:mean_per_edge}}. We display the average error and the standard deviation for the 5-fold cross-validation. \relax }}{25}{table.caption.22}}
\newlabel{table:baseline1}{{\M@TitleReference {4.2}{Calculating the losses on all 4 connections when predicting the mean running time per edge as defined in \hyperref  [subsec:mean_per_edge]{Section~\ref  *{subsec:mean_per_edge}}. We display the average error and the standard deviation for the 5-fold cross-validation. \relax }}{25}{Calculating the losses on all 4 connections when predicting the mean running time per edge as defined in \refsec {subsec:mean_per_edge}. We display the average error and the standard deviation for the 5-fold cross-validation. \relax }{table.caption.22}{}}
\newlabel{table:baseline1@cref}{{[table][2][4]4.2}{[1][25][]25}}
\citation{scikit-learn}
\@writefile{toc}{\contentsline {section}{\numberline {4.2}Random Forest}{26}{section.4.2}}
\@writefile{lof}{\contentsline {figure}{\numberline {4.3}{\ignorespaces Performing 5-fold cross-validation on 4 connections in the graph individually. A comparison of the resulting sum of losses when restricting the maximum depth of the decision trees is displayed.\relax }}{26}{figure.caption.23}}
\newlabel{fig:e2_RF_estimators}{{\M@TitleReference {4.3}{Performing 5-fold cross-validation on 4 connections in the graph individually. A comparison of the resulting sum of losses when restricting the maximum depth of the decision trees is displayed.\relax }}{26}{Performing 5-fold cross-validation on 4 connections in the graph individually. A comparison of the resulting sum of losses when restricting the maximum depth of the decision trees is displayed.\relax }{figure.caption.23}{}}
\newlabel{fig:e2_RF_estimators@cref}{{[figure][3][4]4.3}{[1][26][]26}}
\@writefile{lot}{\contentsline {table}{\numberline {4.3}{\ignorespaces The average error $\mu _{cv}$ and the variance $\sigma _{cv}$ of the 5-fold cross-validation are displayed.\relax }}{27}{table.caption.24}}
\newlabel{table:RF_MAE}{{\M@TitleReference {4.3}{The average error $\mu _{cv}$ and the variance $\sigma _{cv}$ of the 5-fold cross-validation are displayed.\relax }}{27}{The average error $\mu _{cv}$ and the variance $\sigma _{cv}$ of the 5-fold cross-validation are displayed.\relax }{table.caption.24}{}}
\newlabel{table:RF_MAE@cref}{{[table][3][4]4.3}{[1][27][]27}}
\@writefile{lof}{\contentsline {figure}{\numberline {4.4}{\ignorespaces The feature importance of the Random Forest Regressor is displayed for a maximal depth of 5 on the left and 20 on the right. The features comprise \textit  {type}, \textit  {weekday}, \textit  {hour}, \textit  {departure delay} and \textit  {running time (schedule)} of the vehicle.\relax }}{27}{figure.caption.25}}
\newlabel{fig:e3_feature_importance}{{\M@TitleReference {4.4}{The feature importance of the Random Forest Regressor is displayed for a maximal depth of 5 on the left and 20 on the right. The features comprise \textit  {type}, \textit  {weekday}, \textit  {hour}, \textit  {departure delay} and \textit  {running time (schedule)} of the vehicle.\relax }}{27}{The feature importance of the Random Forest Regressor is displayed for a maximal depth of 5 on the left and 20 on the right. The features comprise \textit {type}, \textit {weekday}, \textit {hour}, \textit {departure delay} and \textit {running time (schedule)} of the vehicle.\relax }{figure.caption.25}{}}
\newlabel{fig:e3_feature_importance@cref}{{[figure][4][4]4.4}{[1][27][]27}}
\citation{chollet2015keras}
\@writefile{toc}{\contentsline {section}{\numberline {4.3}Feedforward Neural Network}{28}{section.4.3}}
\@writefile{lof}{\contentsline {figure}{\numberline {4.5}{\ignorespaces Training and validation error for a 3-layer Feedforward Neural Network compared to the baselines.\relax }}{28}{figure.caption.26}}
\newlabel{fig:e4_ffnn}{{\M@TitleReference {4.5}{Training and validation error for a 3-layer Feedforward Neural Network compared to the baselines.\relax }}{28}{Training and validation error for a 3-layer Feedforward Neural Network compared to the baselines.\relax }{figure.caption.26}{}}
\newlabel{fig:e4_ffnn@cref}{{[figure][5][4]4.5}{[1][28][]28}}
\@writefile{lof}{\contentsline {figure}{\numberline {4.6}{\ignorespaces Training and validation error for a Feedforward Neural Network with dropout.\relax }}{29}{figure.caption.27}}
\newlabel{fig:e4_ffnn_2}{{\M@TitleReference {4.6}{Training and validation error for a Feedforward Neural Network with dropout.\relax }}{29}{Training and validation error for a Feedforward Neural Network with dropout.\relax }{figure.caption.27}{}}
\newlabel{fig:e4_ffnn_2@cref}{{[figure][6][4]4.6}{[1][29][]29}}
\citation{pbattaglia}
\citation{Battaglia2018RelationalIB}
\citation{Battaglia2018RelationalIB}
\@writefile{toc}{\contentsline {section}{\numberline {4.4}Graph net}{30}{section.4.4}}
\@writefile{lof}{\contentsline {figure}{\numberline {4.7}{\ignorespaces 5-fold cross-validation for graph nets with small $NN_e, NN_v, NN_u$ using 2 layers with 16 neurons each and summation for aggregation.\relax }}{31}{figure.caption.28}}
\newlabel{fig:e6_graph_nets}{{\M@TitleReference {4.7}{5-fold cross-validation for graph nets with small $NN_e, NN_v, NN_u$ using 2 layers with 16 neurons each and summation for aggregation.\relax }}{31}{5-fold cross-validation for graph nets with small $NN_e, NN_v, NN_u$ using 2 layers with 16 neurons each and summation for aggregation.\relax }{figure.caption.28}{}}
\newlabel{fig:e6_graph_nets@cref}{{[figure][7][4]4.7}{[1][31][]31}}
\@writefile{lof}{\contentsline {figure}{\numberline {4.8}{\ignorespaces 5-fold cross-validation for graph nets with $NN_e, NN_v, NN_u$ using 2 layers with \textbf  {128 neurons} each and summation for aggregation.\relax }}{32}{figure.caption.29}}
\newlabel{fig:e6_graph_nets_sum}{{\M@TitleReference {4.8}{5-fold cross-validation for graph nets with $NN_e, NN_v, NN_u$ using 2 layers with \textbf  {128 neurons} each and summation for aggregation.\relax }}{32}{5-fold cross-validation for graph nets with $NN_e, NN_v, NN_u$ using 2 layers with \textbf {128 neurons} each and summation for aggregation.\relax }{figure.caption.29}{}}
\newlabel{fig:e6_graph_nets_sum@cref}{{[figure][8][4]4.8}{[1][32][]32}}
\citation{Battaglia2018RelationalIB}
\@writefile{lof}{\contentsline {figure}{\numberline {4.9}{\ignorespaces Graph nets with $NN_e, NN_v, NN_u$ using 2 layers with 128 neurons each and the \textbf  {maximum function} for aggregation.\relax }}{34}{figure.caption.30}}
\newlabel{fig:e6_graph_nets_max}{{\M@TitleReference {4.9}{Graph nets with $NN_e, NN_v, NN_u$ using 2 layers with 128 neurons each and the \textbf  {maximum function} for aggregation.\relax }}{34}{Graph nets with $NN_e, NN_v, NN_u$ using 2 layers with 128 neurons each and the \textbf {maximum function} for aggregation.\relax }{figure.caption.30}{}}
\newlabel{fig:e6_graph_nets_max@cref}{{[figure][9][4]4.9}{[1][34][]34}}
\citation{scikit-learn}
\@writefile{toc}{\contentsline {section}{\numberline {4.5}Lasso Regression}{35}{section.4.5}}
\newlabel{subsec:lasso}{{\M@TitleReference {4.5}{Lasso Regression}}{35}{Lasso Regression}{section.4.5}{}}
\newlabel{subsec:lasso@cref}{{[section][5][4]4.5}{[1][35][]35}}
\@writefile{lof}{\contentsline {figure}{\numberline {4.10}{\ignorespaces Lasso Regression with different strength of regularization $\lambda $ are evaluated and compared to the baselines. High regularization strength indicates that a low amount of inputs are considered for the prediction. Contrary a low regularization strength uses more features and therefore is prone to overfitting.\relax }}{36}{figure.caption.31}}
\newlabel{fig:lasso_regularization}{{\M@TitleReference {4.10}{Lasso Regression with different strength of regularization $\lambda $ are evaluated and compared to the baselines. High regularization strength indicates that a low amount of inputs are considered for the prediction. Contrary a low regularization strength uses more features and therefore is prone to overfitting.\relax }}{36}{Lasso Regression with different strength of regularization $\lambda $ are evaluated and compared to the baselines. High regularization strength indicates that a low amount of inputs are considered for the prediction. Contrary a low regularization strength uses more features and therefore is prone to overfitting.\relax }{figure.caption.31}{}}
\newlabel{fig:lasso_regularization@cref}{{[figure][10][4]4.10}{[1][35][]36}}
\@writefile{lof}{\contentsline {figure}{\numberline {4.11}{\ignorespaces Interpreting the learned weights of Lasso with $\lambda \in [0.001,0.009]$ on the edge \textbf  {Lenzburg - Aarau} (green) leads to different amount of features being used depending on the regularization strength $\lambda $.\relax }}{37}{figure.caption.32}}
\newlabel{fig:e11_lasso113_graph_view}{{\M@TitleReference {4.11}{Interpreting the learned weights of Lasso with $\lambda \in [0.001,0.009]$ on the edge \textbf  {Lenzburg - Aarau} (green) leads to different amount of features being used depending on the regularization strength $\lambda $.\relax }}{37}{Interpreting the learned weights of Lasso with $\lambda \in [0.001,0.009]$ on the edge \textbf {Lenzburg - Aarau} (green) leads to different amount of features being used depending on the regularization strength $\lambda $.\relax }{figure.caption.32}{}}
\newlabel{fig:e11_lasso113_graph_view@cref}{{[figure][11][4]4.11}{[1][35][]37}}
\@writefile{toc}{\contentsline {section}{\numberline {4.6}Attention model}{38}{section.4.6}}
\@writefile{lof}{\contentsline {figure}{\numberline {4.12}{\ignorespaces Observing the validation and training loss of the attention model for 20 epochs.\relax }}{38}{figure.caption.33}}
\newlabel{fig:e10_attention_model}{{\M@TitleReference {4.12}{Observing the validation and training loss of the attention model for 20 epochs.\relax }}{38}{Observing the validation and training loss of the attention model for 20 epochs.\relax }{figure.caption.33}{}}
\newlabel{fig:e10_attention_model@cref}{{[figure][12][4]4.12}{[1][38][]38}}
\@writefile{lot}{\contentsline {table}{\numberline {4.4}{\ignorespaces The attention model is an improvement for long travel distances. \relax }}{39}{table.caption.38}}
\newlabel{table:final_result}{{\M@TitleReference {4.4}{The attention model is an improvement for long travel distances. \relax }}{39}{The attention model is an improvement for long travel distances. \relax }{table.caption.38}{}}
\newlabel{table:final_result@cref}{{[table][4][4]4.4}{[1][39][]39}}
\@writefile{lof}{\contentsline {figure}{\numberline {4.13}{\ignorespaces Observing the attention distribution of \textbf  {Z\IeC {\"u}rich HB - Z\IeC {\"u}rich Oerlikon} at 1,5 and 20 epochs of training.\relax }}{40}{figure.caption.34}}
\newlabel{fig:e11_softmax_trainnet_7}{{\M@TitleReference {4.13}{Observing the attention distribution of \textbf  {Z\IeC {\"u}rich HB - Z\IeC {\"u}rich Oerlikon} at 1,5 and 20 epochs of training.\relax }}{40}{Observing the attention distribution of \textbf {Zürich HB - Zürich Oerlikon} at 1,5 and 20 epochs of training.\relax }{figure.caption.34}{}}
\newlabel{fig:e11_softmax_trainnet_7@cref}{{[figure][13][4]4.13}{[1][39][]40}}
\@writefile{lof}{\contentsline {figure}{\numberline {4.14}{\ignorespaces Observing the attention distribution of \textbf  {Lenzburg - Aarau} at 1, 5 and 20 epochs of training.\relax }}{41}{figure.caption.35}}
\newlabel{fig:e11_softmax_trainnet_113}{{\M@TitleReference {4.14}{Observing the attention distribution of \textbf  {Lenzburg - Aarau} at 1, 5 and 20 epochs of training.\relax }}{41}{Observing the attention distribution of \textbf {Lenzburg - Aarau} at 1, 5 and 20 epochs of training.\relax }{figure.caption.35}{}}
\newlabel{fig:e11_softmax_trainnet_113@cref}{{[figure][14][4]4.14}{[1][39][]41}}
\@writefile{lof}{\contentsline {figure}{\numberline {4.15}{\ignorespaces Observing the attention distribution of \textbf  {Winterthur - Z\IeC {\"u}rich Flughafen} at 1, 5 and 20 epochs of training.\relax }}{42}{figure.caption.36}}
\newlabel{fig:e11_softmax_trainnet_35}{{\M@TitleReference {4.15}{Observing the attention distribution of \textbf  {Winterthur - Z\IeC {\"u}rich Flughafen} at 1, 5 and 20 epochs of training.\relax }}{42}{Observing the attention distribution of \textbf {Winterthur - Zürich Flughafen} at 1, 5 and 20 epochs of training.\relax }{figure.caption.36}{}}
\newlabel{fig:e11_softmax_trainnet_35@cref}{{[figure][15][4]4.15}{[1][39][]42}}
\@writefile{lof}{\contentsline {figure}{\numberline {4.16}{\ignorespaces Observing the attention distribution of \textbf  {Olten - Bern} at 1, 5 and 20 epochs of training.\relax }}{43}{figure.caption.37}}
\newlabel{fig:e11_softmax_trainnet_142}{{\M@TitleReference {4.16}{Observing the attention distribution of \textbf  {Olten - Bern} at 1, 5 and 20 epochs of training.\relax }}{43}{Observing the attention distribution of \textbf {Olten - Bern} at 1, 5 and 20 epochs of training.\relax }{figure.caption.37}{}}
\newlabel{fig:e11_softmax_trainnet_142@cref}{{[figure][16][4]4.16}{[1][39][]43}}
\@writefile{lof}{\addvspace {10pt}}
\@writefile{lot}{\addvspace {10pt}}
\@writefile{toc}{\contentsline {chapter}{\chapternumberline {5}Conclusion and Outlook}{45}{chapter.5}}
\bibstyle{plain}
\bibdata{bibliography.bib}
\bibcite{pbattaglia}{1}
\bibcite{Battaglia2018RelationalIB}{2}
\bibcite{Breiman2001}{3}
\bibcite{Breiman1984ClassificationAR}{4}
\bibcite{cambriahuang2013}{5}
\bibcite{Chen2007}{6}
\bibcite{chollet2015keras}{7}
\bibcite{least_angle_regression}{8}
\bibcite{jswhit}{9}
\@writefile{toc}{\contentsline {chapter}{Bibliography}{47}{chapter*.39}}
\bibcite{gaurav2018}{10}
\bibcite{Gori2005}{11}
\bibcite{Gutweniger2018}{12}
\bibcite{Ho_random_forest}{13}
\bibcite{luong2015effective}{14}
\bibcite{SBB_numbers}{15}
\bibcite{neelakantan2015neural}{16}
\bibcite{Oneto2016}{17}
\bibcite{Oneto2018}{18}
\bibcite{scikit-learn}{19}
\bibcite{SBB:open_data}{20}
\bibcite{tibshirani}{21}
\bibcite{2008coordinate_for_lasso}{22}
\bibcite{wiki:Zugnummer}{23}
\bibcite{Yaghini2013}{24}
\bibcite{Yu2010}{25}
\bibcite{zhang2015structured}{26}
\memsetcounter{lastsheet}{56}
\memsetcounter{lastpage}{50}
